{
  "version": 2021092000,
  "url": "https://debconf22.debconf.org/schedule/pentabarf.xml",
  "title": "DebConf 22",
  "start": "2022-07-17",
  "end": "2022-07-24",
  "metadata": {
    "links": [
      {
        "url": "https://debconf22.debconf.org/",
        "title": "Website"
      }
    ]
  }
}
