<?xml version="1.0" encoding="utf-8"?>
<!-- Generator: Adobe Illustrator 26.2.1, SVG Export Plug-In . SVG Version: 6.00 Build 0)  -->
<svg version="1.1" id="Layer_1" xmlns="http://www.w3.org/2000/svg" xmlns:xlink="http://www.w3.org/1999/xlink" x="0px" y="0px"
	 viewBox="0 0 346 381" style="enable-background:new 0 0 346 381;" xml:space="preserve">
<style type="text/css">
	.st0{fill:#1D1D1B;}
	.st1{fill:#AFAFAF;}
	.st2{fill:#9A9999;}
	.st3{fill:#E00614;}
	.st4{fill:#BC0C0E;}
</style>
<g id="Wortmarke_00000092432905013810541490000000259899443549075893_">
	<path class="st0" d="M62.2,308.2c-1.5,3-4.6,4.8-8.4,4.8c-5.6,0-9.8-4.2-9.8-9.9c0-5.8,4.2-10,9.8-10c3.7,0,6.8,1.9,8.3,4.9
		l8.1-4.7c-3-5.6-9.2-9.4-16.3-9.4c-11.1,0-19.2,8.4-19.2,19.2s8.2,19.2,19.2,19.2c7.1,0,13.3-3.8,16.5-9.5L62.2,308.2z"/>
	<path class="st0" d="M85,291.1v-6.3h-9.4v36.4H85v-17.4c0-7.7,6.2-9.8,11.1-9.3v-10.5C91.5,284.1,86.9,286.2,85,291.1z"/>
	<path class="st0" d="M118.2,322.3c7,0,12.5-2.8,15.9-7.8l-7.6-4.4c-1.6,2.1-4.5,3.6-8.2,3.6c-5,0-9-2-10.3-6.8h27.5
		c0.2-1.2,0.4-2.5,0.4-3.9c0-10.7-7.7-19.2-18.4-19.2c-11.4,0-19.2,8.4-19.2,19.2S106,322.3,118.2,322.3z M117.5,292.3
		c3.9,0,7.9,2.1,9,7.4h-18.6C109,295,112.4,292.3,117.5,292.3z"/>
	<path class="st0" d="M169.8,289.2c-2.6-3.4-6.5-5.3-11.8-5.3c-9.8,0-17.8,8.4-17.8,19.2s8,19.2,17.8,19.2c5.3,0,9.2-2,11.8-5.3v4.3
		h9.4v-51h-9.4V289.2z M159.7,313.3c-5.8,0-10.1-4.2-10.1-10.3c0-6.1,4.3-10.3,10.1-10.3c5.8,0,10.1,4.2,10.1,10.3
		C169.8,309.2,165.5,313.3,159.7,313.3z"/>
	<path class="st0" d="M224.9,321.3v-36.4h-9.4v4.3c-2.6-3.3-6.6-5.3-11.9-5.3c-9.7,0-17.7,8.4-17.7,19.2s8,19.2,17.7,19.2
		c5.3,0,9.3-2,11.9-5.3v4.3H224.9z M205.3,313.3c-5.8,0-10.1-4.2-10.1-10.3c0-6.1,4.3-10.3,10.1-10.3c5.8,0,10.1,4.2,10.1,10.3
		C215.5,309.2,211.2,313.3,205.3,313.3z"/>
	<path class="st0" d="M236.6,309c0,9.8,4.4,13.7,17.6,12.2v-8.5c-5.4,0.3-8.2,0.2-8.2-3.7v-15.2h8.2v-9H246v-10.2l-9.4,2.8v7.4h-6.3
		v9h6.3V309z"/>
	<rect x="260.9" y="284.9" class="st0" width="9.4" height="36.4"/>
	<path class="st0" d="M265.5,280.5c3.2,0,5.8-2.6,5.8-5.8s-2.6-5.8-5.8-5.8c-3.1,0-5.8,2.7-5.8,5.8S262.4,280.5,265.5,280.5z"/>
	<polygon class="st0" points="299.3,321.3 313.2,284.9 302.8,284.9 293.9,310.4 285.1,284.9 274.8,284.9 288.6,321.3 	"/>
</g>
<g id="Bildmarke_00000065792892253751782770000008042201061523841189_">
	<path class="st1" d="M130.7,133.7c0,20.6,16.7,37.4,37.4,37.4v70.7c-0.4,0-0.7,0-1.1,0c-0.1,0-0.1,0-0.2,0h-0.5
		c-73-1.7-131.6-49.5-131.6-108.2C34.7,74.4,94.2,26.3,168,25.3v71c-0.4,0-0.8,0-1.2,0c-1.3,0-2.5,0.1-3.7,0.3
		c-0.6,0.1-1.1,0.2-1.7,0.3c-1.9,0.3-3.7,0.8-5.4,1.4c-0.6,0.2-1.1,0.4-1.6,0.6c-0.9,0.3-1.7,0.7-2.5,1.1
		C139.4,106,130.7,118.8,130.7,133.7z"/>
	<path class="st2" d="M168,171v70.7l-1.2,0c-50.6-1.1-91.1-33.4-91.1-72.8c0-39.4,40.6-71.5,91.2-72.6c-1.3,0-2.5,0.1-3.7,0.3
		c-0.6,0.1-1.1,0.2-1.7,0.3c-1.9,0.3-3.7,0.8-5.4,1.4c-0.5,0.2-1.1,0.4-1.6,0.6c-0.9,0.3-1.7,0.7-2.5,1.1
		c-12.6,6-21.3,18.9-21.3,33.7C130.7,154.3,147.4,171,168,171z"/>
	<path class="st3" d="M191.1,25.8c0,0-4.1-0.3-7.3-0.4c-1.7-0.1-3.6-0.1-3.7-0.1v70.9h18.8c16.6,0,30.8,11.1,35.4,26.2
		c1.1,3.5,1.7,7.2,1.7,11v0.2c0,4.1-0.7,8-1.9,11.7c-2.6,7.6-7.6,14.1-14,18.6c-2.9,2.1-6.2,3.7-9.7,4.9c-1,0.3-2.1,0.6-3.1,0.9
		c-0.3,0.1-0.6,0.2-0.9,0.2c-2.1,0.5-4.4,0.7-6.6,0.8c0,0-1.1,0-1.2,0h-18.4v70.9c73.8-1,133.2-49,133.2-108.1
		C313.3,77.4,259.7,31.2,191.1,25.8z"/>
	<path class="st4" d="M271.3,99.4c0,19.2-9.2,36.7-24.3,49.9c-10,8.7-22.5,15.5-36.7,19.6c3.6-1.2,6.9-2.9,9.9-5
		c6.4-4.5,11.3-11,13.8-18.6c1.2-3.7,1.9-7.6,1.9-11.7v-0.2c0-3.8-0.6-7.5-1.7-11c-4.7-15.1-18.8-26.1-35.4-26.1h-1.7v74.4h-17.1
		V25.3c1.9-0.1,7.6,0.3,7.6,0.3C234.6,29.3,271.3,61,271.3,99.4z"/>
</g>
<g>
	<path d="M48.4,346.6v-10.2h1.9v14.3h-1l-8.6-10.1v10.1h-1.9v-14.3h0.9L48.4,346.6z"/>
	<path d="M58.3,350.9c-1.6,0-2.9-0.5-3.9-1.6c-1-1.1-1.5-2.4-1.5-3.9c0-1.5,0.5-2.8,1.5-3.9c1-1.1,2.3-1.6,3.9-1.6
		c1.6,0,2.9,0.5,3.9,1.6c1,1.1,1.5,2.4,1.5,3.9c0,1.5-0.5,2.8-1.5,3.9C61.1,350.4,59.8,350.9,58.3,350.9z M61.8,345.5
		c0-1-0.3-1.9-1-2.6c-0.7-0.7-1.5-1.1-2.5-1.1s-1.8,0.4-2.5,1.1c-0.7,0.7-1,1.6-1,2.6c0,1,0.3,1.9,1,2.7c0.7,0.7,1.5,1.1,2.5,1.1
		s1.8-0.4,2.5-1.1C61.5,347.4,61.8,346.5,61.8,345.5z"/>
	<path d="M69.6,350.7H68l-3.6-10.4h2l2.5,7.8l2.8-7.8H73l2.9,7.8l2.4-7.8h1.9l-3.5,10.4h-1.5l-2.9-7.8L69.6,350.7z"/>
	<path d="M92.3,340.1c1.5,0,2.7,0.5,3.7,1.6c1,1.1,1.5,2.4,1.5,3.9c0,1.5-0.5,2.8-1.5,3.9c-1,1-2.2,1.6-3.7,1.6
		c-1.5,0-2.7-0.6-3.7-1.8v5.8h-1.9v-14.7h1.9v1.6C89.5,340.7,90.8,340.1,92.3,340.1z M95.6,345.5c0-1-0.3-1.9-1-2.6
		c-0.7-0.7-1.5-1.1-2.6-1.1s-1.9,0.4-2.6,1.1c-0.6,0.7-1,1.6-1,2.6c0,1.1,0.3,1.9,1,2.7c0.7,0.7,1.5,1.1,2.6,1.1s1.9-0.4,2.6-1.1
		C95.3,347.4,95.6,346.5,95.6,345.5z"/>
	<path d="M107.9,341.8v-1.5h1.8v10.4h-1.8v-1.5c-0.9,1.1-2.1,1.7-3.7,1.7c-1.5,0-2.7-0.5-3.7-1.6c-1-1.1-1.5-2.4-1.5-3.9
		s0.5-2.8,1.5-3.8c1-1,2.2-1.5,3.7-1.5C105.7,340.1,106.9,340.6,107.9,341.8z M108,345.5c0-1-0.3-1.9-1-2.6
		c-0.7-0.7-1.5-1.1-2.6-1.1s-1.9,0.4-2.6,1.1c-0.6,0.7-1,1.6-1,2.7c0,1,0.3,1.9,1,2.7c0.6,0.7,1.5,1.1,2.6,1.1s1.9-0.4,2.6-1.1
		C107.7,347.4,108,346.5,108,345.5z"/>
	<path d="M114.4,350.7h-1.9v-10.4h1.8v1.5c0.6-1.2,1.6-1.8,3-1.8c0.4,0,0.8,0.1,1.2,0.2l-0.2,1.8c-0.4-0.1-0.7-0.2-1.1-0.2
		c-0.9,0-1.5,0.3-2.1,0.9c-0.5,0.6-0.8,1.4-0.8,2.5V350.7z"/>
	<path d="M126.5,348.6l0.7,1.4c-0.7,0.6-1.7,0.9-2.8,0.9c-1.1,0-1.9-0.3-2.5-1s-0.8-1.6-0.8-2.9v-5.1h-1.8v-1.6h1.9v-3.7h1.8v3.7
		h3.7v1.6h-3.7v5.3c0,1.4,0.6,2.1,1.7,2.1C125.2,349.2,125.8,349,126.5,348.6z"/>
	<path d="M138.3,350.9c-1.6,0-2.9-0.5-3.9-1.6c-1-1.1-1.5-2.4-1.5-3.9c0-1.5,0.5-2.8,1.5-3.9c1-1.1,2.3-1.6,3.9-1.6
		c1.6,0,2.9,0.5,3.9,1.6c1,1.1,1.5,2.4,1.5,3.9c0,1.5-0.5,2.8-1.5,3.9C141.1,350.4,139.8,350.9,138.3,350.9z M141.8,345.5
		c0-1-0.3-1.9-1-2.6c-0.7-0.7-1.5-1.1-2.5-1.1s-1.8,0.4-2.5,1.1c-0.7,0.7-1,1.6-1,2.6c0,1,0.3,1.9,1,2.7c0.7,0.7,1.5,1.1,2.5,1.1
		s1.8-0.4,2.5-1.1C141.5,347.4,141.8,346.5,141.8,345.5z"/>
	<path d="M150.7,337.5c-1.5,0-2.2,0.7-2.2,2.2v0.6h3.3v1.6h-3.3v8.8h-1.9v-8.8h-1.8v-1.6h1.8v-0.7c0-1.2,0.4-2.2,1.1-2.8
		c0.7-0.7,1.6-1,2.8-1c0.8,0,1.6,0.2,2.3,0.6l-0.6,1.5C151.6,337.6,151.1,337.5,150.7,337.5z"/>
	<path d="M161.9,350.9c-1.1,0-2.2-0.2-3.1-0.7s-1.7-1.1-2.3-2l1.6-2c1,1.3,2.2,2,3.8,2c0.6,0,1.1-0.1,1.5-0.4
		c0.4-0.3,0.6-0.7,0.6-1.1c0-0.6-0.4-1.1-1.3-1.5c-0.1-0.1-0.6-0.2-1.4-0.6c-0.7-0.3-1.2-0.5-1.7-0.8c-1.5-0.9-2.3-2.1-2.3-3.6
		c0-1.2,0.5-2.2,1.4-3c0.9-0.8,2.1-1.2,3.5-1.2c1.9,0,3.4,0.6,4.7,1.9l-1.5,2.1c-0.4-0.4-0.9-0.7-1.4-1c-0.6-0.2-1.1-0.4-1.7-0.4
		c-0.6,0-1,0.1-1.3,0.4c-0.3,0.3-0.5,0.6-0.5,1c0,0.6,0.4,1,1.2,1.4l1.4,0.6c0.8,0.3,1.4,0.6,1.7,0.8c1.6,0.8,2.4,2,2.4,3.6
		c0,1.3-0.5,2.3-1.5,3.1C164.7,350.5,163.5,350.9,161.9,350.9z"/>
	<path d="M175.1,339.9c1.5,0,2.7,0.5,3.7,1.6c1,1.1,1.5,2.4,1.5,3.9c0,1.5-0.5,2.9-1.5,3.9s-2.2,1.6-3.7,1.6c-1.3,0-2.4-0.5-3.3-1.5
		v5.6H169v-14.9h2.7v1.3C172.6,340.4,173.8,339.9,175.1,339.9z M174.6,348.4c0.9,0,1.6-0.3,2.1-0.9c0.5-0.6,0.8-1.3,0.8-2.1
		s-0.3-1.6-0.8-2.1c-0.5-0.6-1.2-0.9-2.1-0.9c-0.9,0-1.5,0.3-2.1,0.9c-0.5,0.6-0.8,1.3-0.8,2.1s0.3,1.6,0.8,2.1
		C173.1,348.1,173.8,348.4,174.6,348.4z"/>
	<path d="M181.7,345.4c0-1.6,0.5-2.9,1.6-3.9c1.1-1.1,2.4-1.6,4.1-1.6c1.6,0,3,0.5,4.1,1.6c1.1,1.1,1.6,2.4,1.6,3.9
		c0,1.6-0.5,2.9-1.6,3.9c-1.1,1.1-2.4,1.6-4.1,1.6c-1.6,0-3-0.5-4.1-1.6C182.2,348.3,181.7,347,181.7,345.4z M185.2,347.5
		c0.6,0.6,1.3,0.9,2.1,0.9c0.8,0,1.5-0.3,2.1-0.9c0.6-0.6,0.9-1.3,0.9-2.1s-0.3-1.5-0.9-2.1c-0.6-0.6-1.3-0.9-2.1-0.9
		c-0.8,0-1.5,0.3-2.1,0.9c-0.6,0.6-0.8,1.3-0.8,2.1C184.4,346.2,184.7,347,185.2,347.5z"/>
	<path d="M201.5,347.9l0.8,2.1c-0.9,0.6-1.9,0.9-3.1,0.9c-1.2,0-2.1-0.4-2.7-1.1c-0.6-0.7-0.9-1.7-0.9-3.1v-4.4h-1.7v-2.3h1.7v-3.7
		h2.7v3.7h3.5v2.3h-3.5v4.2c0,1.2,0.5,1.9,1.5,1.9C200.3,348.5,200.9,348.3,201.5,347.9z"/>
	<path d="M214.4,339.9c1.5,0,2.7,0.5,3.8,1.6c1,1.1,1.5,2.4,1.5,3.9s-0.5,2.9-1.5,3.9c-1,1-2.3,1.6-3.8,1.6c-1.3,0-2.4-0.5-3.3-1.6
		v1.3h-2.7V336h2.7v5.4C212,340.4,213.1,339.9,214.4,339.9z M211,345.4c0,0.8,0.3,1.6,0.8,2.2c0.5,0.6,1.2,0.9,2.1,0.9
		c0.9,0,1.5-0.3,2.1-0.9c0.5-0.6,0.8-1.3,0.8-2.2s-0.3-1.6-0.8-2.1c-0.5-0.6-1.2-0.9-2.1-0.9c-0.9,0-1.5,0.3-2.1,0.9
		C211.3,343.9,211,344.6,211,345.4z"/>
	<path d="M225.8,347l2.4-6.9h3l-4.2,11.1c-0.5,1.4-1.1,2.4-1.8,3c-0.7,0.6-1.6,1-2.6,1c-0.8,0-1.5-0.2-2-0.5l0.5-2.3
		c0.5,0.2,0.9,0.3,1.4,0.3c0.8,0,1.5-0.6,2.1-1.7l0.2-0.5l-4.6-10.4h3.2L225.8,347z"/>
	<path d="M247,345.2v-8.8h2.8v14.3h-2l-7.4-8.8v8.8h-2.8v-14.3h1.8L247,345.2z"/>
	<path d="M262.7,345.2c0,0.3,0,0.7-0.1,1.2h-7.9c0.4,1.5,1.4,2.2,3.1,2.2c1.2,0,2.4-0.4,3.4-1.1l1.1,1.9c-1.3,1-2.9,1.5-4.6,1.5
		c-1.8,0-3.3-0.5-4.3-1.6c-1-1.1-1.5-2.4-1.5-3.9c0-1.6,0.5-2.9,1.5-4c1-1,2.3-1.6,4-1.6c1.5,0,2.8,0.5,3.8,1.4
		C262.2,342.3,262.7,343.5,262.7,345.2z M257.4,342.1c-0.7,0-1.3,0.2-1.8,0.6c-0.5,0.4-0.8,0.9-1,1.6h5.4c-0.1-0.7-0.4-1.2-0.9-1.6
		C258.7,342.3,258.1,342.1,257.4,342.1z"/>
	<path d="M271.2,347.9l0.8,2.1c-0.9,0.6-1.9,0.9-3.1,0.9c-1.2,0-2.1-0.4-2.7-1.1c-0.6-0.7-0.9-1.7-0.9-3.1v-4.4h-1.7v-2.3h1.7v-3.7
		h2.7v3.7h3.5v2.3H268v4.2c0,1.2,0.5,1.9,1.5,1.9C270,348.5,270.6,348.3,271.2,347.9z"/>
	<path d="M285.4,350.7h-3l-1.1-3.1h-5l-1.1,3.1h-3l5.5-14.3h2.3L285.4,350.7z M280.5,345l-1.7-4.8l-1.7,4.8H280.5z"/>
	<path d="M292.9,339.9c1.5,0,2.7,0.5,3.7,1.6c1,1.1,1.5,2.4,1.5,3.9c0,1.5-0.5,2.9-1.5,3.9s-2.2,1.6-3.7,1.6c-1.3,0-2.4-0.5-3.3-1.5
		v5.6h-2.7v-14.9h2.7v1.3C290.4,340.4,291.5,339.9,292.9,339.9z M292.4,348.4c0.9,0,1.6-0.3,2.1-0.9c0.5-0.6,0.8-1.3,0.8-2.1
		s-0.3-1.6-0.8-2.1c-0.5-0.6-1.2-0.9-2.1-0.9c-0.9,0-1.5,0.3-2.1,0.9c-0.5,0.6-0.8,1.3-0.8,2.1s0.3,1.6,0.8,2.1
		C290.8,348.1,291.5,348.4,292.4,348.4z"/>
	<path d="M306.1,339.9c1.5,0,2.7,0.5,3.7,1.6c1,1.1,1.5,2.4,1.5,3.9c0,1.5-0.5,2.9-1.5,3.9s-2.2,1.6-3.7,1.6c-1.3,0-2.4-0.5-3.3-1.5
		v5.6H300v-14.9h2.7v1.3C303.6,340.4,304.7,339.9,306.1,339.9z M305.6,348.4c0.9,0,1.6-0.3,2.1-0.9c0.5-0.6,0.8-1.3,0.8-2.1
		s-0.3-1.6-0.8-2.1c-0.5-0.6-1.2-0.9-2.1-0.9c-0.9,0-1.5,0.3-2.1,0.9c-0.5,0.6-0.8,1.3-0.8,2.1s0.3,1.6,0.8,2.1
		C304,348.1,304.7,348.4,305.6,348.4z"/>
</g>
</svg>
